{
  "ROOT": {
    "Event": {
      "Type": "string",
      "ID": "string",
      "CallerID": "string",
      "CorrelationID": "string",
      "SourceID": "string",
      "OriginalAppl": "string",
      "OriginalPubID": "string",
      "MessageCreationTimestamp": "2008-09-29T04:49:45",
      "FrontendUserId": "string",
      "DealerCode": "string",
      "SalesChannel": "string",
      "DealerOrganisation": "string",
      "ShopID": "string"
    },
    "DATA": {
      "JobCode": "RCA",
      "ManufacturerName": "Testmanufacturer",
      "ModelName": "Testmodel",
      "EquipmentType": "Receiver",
      "CaSystemList": [
        {
          "AttributeName": "Dv6",
          "AttributeValue": "true"
        },
        {
          "AttributeName": "Dv7",
          "AttributeValue": "true"
        },
        {
          "AttributeName": "NDS",
          "AttributeValue": "true"
        }
      ],
      "SupportedSmartcardList": [
        "F02",
        "SCSWLC"
      ],
      "FeatureList": [
        {
          "AttributeName": "VOD",
          "AttributeValue": "true"
        },
        {
          "AttributeName": "IP_VOD",
          "AttributeValue": "true"
        },
        {
          "AttributeName": "HD",
          "AttributeValue": "true"
        },
        {
          "AttributeName": "HDFree",
          "AttributeValue": "true"
        }
      ]
    },
    "Status": {
      "ErrorCode": "OGWERR-0000",
      "ErrorDescription": "SUCCESS"
    }
  }
}

