{
  "ReferenceID": "ID",
  "Status": {
    "StatusReasonCode": "ERR-0000",
    "StatusReason": "No Error"
  },
  "Success": true,
  "Account": {
    "PartyIdentification": {
      "ID": "LINKED_ID"
    }
  }
}
