{
  "ROOT": {
    "Event": {
      "Type": "string",
      "ID": "string",
      "CallerID": "string",
      "CorrelationID": "string",
      "SourceID": "string",
      "OriginalAppl": "string",
      "OriginalPubID": "string",
      "MessageCreationTimestamp": "2008-09-29T04:49:45",
      "FrontendUserId": "string",
      "DealerCode": "string",
      "SalesChannel": "string",
      "DealerOrganisation": "string",
      "ShopID": "string"
    },
    "DATA": {
      "Countries": [
        {
          "Name": "USA und Kanada",
          "Code": "Nordamerika"
        },
        {
          "Name": "Deutschland",
          "Code": "Deutschland"
        }
      ],
      "Comments": [
        {
          "Pk": "1",
          "Sort": "20",
          "Text": "Sonderaktionen",
          "Edit": "true"
        },
        {
          "Pk": "2",
          "Sort": "5",
          "Text": "Wegfall Einmalentgelt",
          "Edit": "false"
        },
        {
          "Pk": "3",
          "Sort": "6",
          "Text": "Umzug",
          "Edit": "true"
        }
      ],
      "Campaigns": [
        {
          "Code": "000",
          "PresentationText": "000 - keine Kampagne feststellbar"
        },
        {
          "Code": "007",
          "PresentationText": "007 - James Bond Kampagne"
        }
      ],
      "MarketingCodes": [
        {
          "Code": "BRI",
          "PresentationText": "Kunde schreibt"
        },
        {
          "Code": "FAX",
          "PresentationText": "Kunde faxt Bestellung"
        },
        {
          "Code": "INB",
          "PresentationText": "Kunde ruft an"
        },
        {
          "Code": "TEL",
          "PresentationText": "Kunde wird angerufen"
        }
      ],
      "Carriers": [
        {
          "Code": "LEER12",
          "PresentationText": "010090 GmbH",
          "CableProvider": "true"
        },
        {
          "Code": "LEER117",
          "PresentationText": "01024 Telefondienste GmbH",
          "CableProvider": "true"
        },
        {
          "Code": "LEER124",
          "PresentationText": "01051 Telecom GmbH",
          "CableProvider": "false"
        }
      ],
      "AdvertisingCodes": [
        {
          "Code": "INB",
          "PresentationText": "INB - Inbound"
        },
        {
          "Code": "MKL",
          "PresentationText": "MKL - Printwerbung \/ Klassisches Marketing"
        },
        {
          "Code": "MDM",
          "PresentationText": "MDM - direktes Anschreiben \/ Dialogmarketing"
        },
        {
          "Code": "MOU",
          "PresentationText": "MOU - Outbound Anruf"
        },
        {
          "Code": "MTV",
          "PresentationText": "MTV - TV-Werbung"
        },
        {
          "Code": "INF",
          "PresentationText": "INF - Infokanal"
        },
        {
          "Code": "UPS",
          "PresentationText": "UPS - Upselling Inbound"
        },
        {
          "Code": "WEB",
          "PresentationText": "WEB - Inbound WWWLine"
        },
        {
          "Code": "WWW",
          "PresentationText": "WWW - Internet"
        },
        {
          "Code": "BOB",
          "PresentationText": "BOB - GA BO o.Kontakt"
        },
        {
          "Code": "UMZ",
          "PresentationText": "UMZ - GA Bearb. Umzug"
        }
      ]
    },
    "Status": {
      "ErrorCode": "OGWERR-0000",
      "ErrorDescription": "SUCCESS"
    }
  }
}
