<?xml version="1.0" encoding="UTF-8"?>
<svg width="16px" height="11px" viewBox="0 0 16 11" version="1.1" xmlns="http://www.w3.org/2000/svg" xmlns:xlink="http://www.w3.org/1999/xlink">
    <!-- Generator: Sketch 50.2 (55047) - http://www.bohemiancoding.com/sketch -->
    <title>Icons / General / View</title>
    <desc>Created with Sketch.</desc>
    <defs>
        <path d="M10,4 C6.36363636,4 3.23636364,6.27333333 2,9.5 C3.23636364,12.7266667 6.36363636,15 10,15 C13.6363636,15 16.7636364,12.7266667 18,9.5 C16.7636364,6.27333333 13.6363636,4 10,4 L10,4 Z M10,13.1666667 C7.96363636,13.1666667 6.36363636,11.5533333 6.36363636,9.5 C6.36363636,7.44666667 7.96363636,5.83333333 10,5.83333333 C12.0363636,5.83333333 13.6363636,7.44666667 13.6363636,9.5 C13.6363636,11.5533333 12.0363636,13.1666667 10,13.1666667 L10,13.1666667 Z M10,7.3 C8.76363636,7.3 7.81818182,8.25333333 7.81818182,9.5 C7.81818182,10.7466667 8.76363636,11.7 10,11.7 C11.2363636,11.7 12.1818182,10.7466667 12.1818182,9.5 C12.1818182,8.25333333 11.2363636,7.3 10,7.3 L10,7.3 Z" id="path-1"></path>
    </defs>
    <g id="Checkout" stroke="none" stroke-width="1" fill="none" fill-rule="evenodd">
        <g id="WIP-Board" transform="translate(-634.000000, -548.000000)">
            <g id="Icons-/-General-/-View" transform="translate(632.000000, 544.000000)">
                <g id="Shape">
                    <polygon id="Bounds" points="0 0 20 0 20 20 0 20"></polygon>
                    <mask id="mask-2" fill="white">
                        <use xlink:href="#path-1"></use>
                    </mask>
                    <use fill="#2D4552" xlink:href="#path-1"></use>
                    <g id="🏳️‍🌈-Color-/-Standard-/-B-303:-Gray-Blue-Dark" mask="url(#mask-2)" fill="#2D4552">
                        <rect id="BG" x="0" y="0" width="20" height="20"></rect>
                    </g>
                </g>
            </g>
        </g>
    </g>
</svg>