<svg xmlns="http://www.w3.org/2000/svg" xmlns:xlink="http://www.w3.org/1999/xlink" width="25" height="23" viewBox="0 0 25 23">
    <defs>
        <path id="a" d="M11.38 14.205c-.8-.506-1.33-1.515-1.33-2.655 0-1.635 1.092-3 2.5-3s2.5 1.365 2.5 3c0 1.14-.53 2.149-1.33 2.655a4.516 4.516 0 0 1 3.33 4.345h-1c0-1.924-1.576-3.5-3.5-3.5a3.512 3.512 0 0 0-3.5 3.5h-1a4.516 4.516 0 0 1 3.33-4.345zm1.17 8.895a9.55 9.55 0 1 1 0-19.1 9.55 9.55 0 0 1 0 19.1zm0-2.1a7.45 7.45 0 1 0 0-14.9 7.45 7.45 0 0 0 0 14.9zm0-7.45c.8 0 1.5-.874 1.5-2s-.7-2-1.5-2-1.5.874-1.5 2 .7 2 1.5 2zm8.158 8.142a1.05 1.05 0 1 1 1.484-1.484l4.7 4.7a1.05 1.05 0 1 1-1.484 1.484l-4.7-4.7z"/>
    </defs>
    <g fill="none" fill-rule="evenodd" transform="translate(-3 -4)">
        <path d="M0 0h30v30H0z"/>
        <mask id="b" fill="#fff">
            <use xlink:href="#a"/>
        </mask>
        <use fill="#2D4552" fill-rule="nonzero" xlink:href="#a"/>
        <g fill="#2D4552" mask="url(#b)">
            <path d="M0 0h30v30H0z"/>
        </g>
    </g>
</svg>
