<?xml version="1.0" encoding="UTF-8"?>
<svg width="28px" height="37px" viewBox="0 0 28 37" version="1.1" xmlns="http://www.w3.org/2000/svg" xmlns:xlink="http://www.w3.org/1999/xlink">
    <!-- Generator: Sketch 42 (36781) - http://www.bohemiancoding.com/sketch -->
    <title>Icons/Shopping Bag</title>
    <desc>Created with Sketch.</desc>
    <defs>
        <filter x="-50%" y="-50%" width="200%" height="200%" filterUnits="objectBoundingBox" id="filter-1">
            <feOffset dx="1" dy="0" in="SourceAlpha" result="shadowOffsetOuter1"></feOffset>
            <feGaussianBlur stdDeviation="1.5" in="shadowOffsetOuter1" result="shadowBlurOuter1"></feGaussianBlur>
            <feColorMatrix values="0 0 0 0 0   0 0 0 0 0   0 0 0 0 0  0 0 0 0.2 0" type="matrix" in="shadowBlurOuter1" result="shadowMatrixOuter1"></feColorMatrix>
            <feMerge>
                <feMergeNode in="shadowMatrixOuter1"></feMergeNode>
                <feMergeNode in="SourceGraphic"></feMergeNode>
            </feMerge>
        </filter>
    </defs>
    <g id="Shoppingcart-UI" stroke="none" stroke-width="1" fill="none" fill-rule="evenodd">
        <g id="Example-Shopping-Bag-Show-VAT-Specification" transform="translate(-69.000000, -68.000000)" fill="#000000">
            <g id="Shoppingcart-Container" filter="url(#filter-1)" transform="translate(31.000000, 0.000000)">
                <g id="Shoppingcart-Sidebar">
                    <g id="Title" transform="translate(40.000000, 71.000000)">
                        <g id="Icons/Shopping-Bag">
                            <g id="Shopping-Cart-Icon">
                                <path d="M0,9.00494659 C0,7.89764516 0.889673948,7 1.991155,7 L20.008845,7 C21.1085295,7 22,7.89702623 22,9.00494659 L22,28.9950534 C22,30.1023548 21.1103261,31 20.008845,31 L1.991155,31 C0.891470458,31 0,30.1029738 0,28.9950534 L0,9.00494659 Z M2,9 L2,29 L20,29 L20,9 L2,9 Z" id="Combined-Shape"></path>
                                <path d="M5.5,14 C4.67157288,14 4,13.3284271 4,12.5 C4,11.6715729 4.67157288,11 5.5,11 C6.32842712,11 7,11.6715729 7,12.5 C7,13.3284271 6.32842712,14 5.5,14 Z M16.5,14 C15.6715729,14 15,13.3284271 15,12.5 C15,11.6715729 15.6715729,11 16.5,11 C17.3284271,11 18,11.6715729 18,12.5 C18,13.3284271 17.3284271,14 16.5,14 Z" id="Combined-Shape"></path>
                                <path d="M5,6.0053084 C5,2.68866815 7.69303423,0 11,0 C14.3137085,0 17,2.6936084 17,6.0053084 L17,13 L5,13 L5,6.0053084 Z M6,5.99682215 L6,12.9871318 L16,13 L16,6.00218626 C16,3.22898489 13.7614237,1 11,1 C8.24419519,1 6,3.23715348 6,5.99682215 Z" id="Combined-Shape"></path>
                            </g>
                        </g>
                    </g>
                </g>
            </g>
        </g>
    </g>
</svg>