<?xml version="1.0" encoding="utf-8"?>
<!-- Generator: Adobe Illustrator 19.2.0, SVG Export Plug-In . SVG Version: 6.00 Build 0)  -->
<svg version="1.1" id="Ebene_1" xmlns="http://www.w3.org/2000/svg" xmlns:xlink="http://www.w3.org/1999/xlink" x="0px" y="0px"
	 viewBox="0 0 32 32" style="enable-background:new 0 0 32 32;" xml:space="preserve">
<style type="text/css">
	.st0{fill:#E31013;}
</style>
<path class="st0" d="M12,11.3c-0.1,0-0.2,0-0.3,0c-0.3,0-0.6,0.1-0.9,0.1c-1.4,0.4-2.4,1.6-2.4,3.1c0,1.8,1.5,3.3,3.3,3.3
	c0.6,0,1.1-0.2,1.6-0.4c0.3-0.2,0.6-0.4,0.8-0.6c0.6-0.6,0.9-1.4,0.9-2.2C15,12.9,13.7,11.5,12,11.3z M16,1C7.7,1,1,7.7,1,16
	c0,8.3,6.7,15,15,15c8.3,0,15-6.7,15-15C31,7.7,24.3,1,16,1z M24.5,15.8c0,1.4-1.1,2.5-2.5,2.5h-1.7L18,20.5l-2.2-2.2h-1
	c-0.1,0-0.3,0.1-0.5,0c2.4,0.9,4.2,3.3,4.2,6.1h-1c0-3-2.5-5.5-5.5-5.5s-5.5,2.5-5.5,5.5h-1c0-2.8,1.8-5.2,4.2-6.1
	c-1.3-0.7-2.3-2.1-2.3-3.7c0-2.3,1.8-4.1,4-4.2V9.8c0-0.3,0.1-0.7,0.2-1c0.2-0.4,0.5-0.8,0.9-1.1c0.3-0.2,0.6-0.3,0.9-0.4
	c0.2,0,0.3-0.1,0.5-0.1h8c1.4,0,2.5,1.1,2.5,2.5V15.8z M22,8.3h-8c-0.1,0-0.2,0-0.3,0c-0.2,0-0.4,0.1-0.5,0.2
	c-0.2,0.2-0.4,0.4-0.5,0.7c-0.1,0.2-0.1,0.4-0.1,0.6v0.6c2,0.4,3.5,2.1,3.5,4.2c0,1.1-0.4,2-1,2.8h1.2l1.8,1.8l1.9-1.8H22
	c0.8,0,1.5-0.7,1.5-1.5v-6C23.5,9,22.8,8.3,22,8.3z M21,14.3h-4c-0.3,0-0.5-0.2-0.5-0.5s0.2-0.5,0.5-0.5h4c0.3,0,0.5,0.2,0.5,0.5
	S21.3,14.3,21,14.3z M21,12.3h-5c-0.3,0-0.5-0.2-0.5-0.5s0.2-0.5,0.5-0.5h5c0.3,0,0.5,0.2,0.5,0.5S21.3,12.3,21,12.3z"/>
</svg>
