[
  {
    "basketId": "4000055137489",
    "customerId": null,
    "itemsList": null,
    "oneTimeTotalPrice": 0,
    "recurringTotalPrice": 0,
    "addressId": "13828549",
    "lastName": "new twee decon pond",
    "validationItems": [],
    "consolidate": null,
    "orderType": null,
    "totOrdProdPriceWoDisc": 0,
    "totOrdProdPriceWitDisc": 0,
    "totOwnProdPriceWoDisc": 0,
    "totOwnProdPriceWitDisc": 0,
    "replacableItems": null,
    "purchasedProducts": null,
    "customerProfile": null,
    "deviceDetailPrice": 0,
    "loanDetails": null,
    "crossFootPrint": false,
    "subTotals": [],
    "engineeringAppointment": null,
    "agentDetails": null
  }
]