 {
 	"ReferenceID": "5a436f44e0047",
 	"Status": {
 		"StatusReasonCode": "ERR-0000",
 		"StatusReason": "SUCCESS"
 	},
 	"Success": "true",
 	"ReturnedNumberOfRecords": "1",
 	"Account": {
 		"PartyName": {
 			"Name": []
 		},
 		"PostalAddress": {
 			"StreetName": "Bahnhofsplatz",
 			"BuildingNumber": "8",
 			"CityName": "Kassel",
 			"PostalZone": "34117"
 		},
 		"Contact": {
 			"ID": "FN_001908149988"
 		},
 		"AccountClass": "P",
 		"Role": {
 			"Person": {
 				"FirstName": "Ingrid",
 				"FamilyName": "Becker",
 				"BirthDate": "1963-12-01",
 				"ContactPhoneNumber": {
 					"PhoneNumber": "(0231) 12345"
 				}
 			}
 		}
 	}
 }
