{
  "ROOT": {
    "Event": {
      "Type": "string",
      "ID": "string",
      "CallerID": "string",
      "CorrelationID": "string",
      "SourceID": "string",
      "OriginalAppl": "string",
      "OriginalPubID": "string",
      "MessageCreationTimestamp": "2008-09-29T04:49:45",
      "FrontendUserId": "string",
      "DealerCode": "string",
      "SalesChannel": "string",
      "DealerOrganisation": "string",
      "ShopID": "string"
    },
    "DATA": {
      "SmartCardSerialNumber": "051284424977",
      "Type": "Dv7",
      "HD": "true"
    },
    "Status": {
      "ErrorCode": "OGWERR-0000",
      "ErrorDescription": "SUCCESS"
    }
  }
}
