<svg xmlns="http://www.w3.org/2000/svg" width="30" height="30" viewBox="0 0 30 30">
    <g fill="none" fill-rule="evenodd">
        <circle cx="15" cy="15" r="15" fill="#174080"/>
        <g fill="#FFF">
            <path d="M15.47 17.858L16.969 10h-2.612l-1.976 10.471 4.762.005.476-2.618h-2.15M24.013 12.31c.459 0 1.116.104 1.513.238l.474-2.4A12.328 12.328 0 0 0 24.105 10c-3.025 0-4.447 1.714-4.447 3.636 0 2.518 2.69 2.489 2.69 3.561 0 .537-.397.836-1.253.836-.596 0-1.421-.135-1.91-.314l-.518 2.575c.565.104 1.358.182 2.153.182 2.704 0 4.599-1.714 4.599-3.785 0-2.444-2.704-2.488-2.704-3.562 0-.476.336-.82 1.298-.82M9.727 10C6.239 10 4 12.971 4 16.619c0 2.281 1.055 3.857 3.72 3.857 1.054 0 2.167-.22 3.055-.656l.856-5.047H9.289l-.502 3.076c-.206.06-.45.075-.644.075-1.17 0-1.595-.735-1.595-1.71 0-1.816.978-3.692 2.973-3.692.56 0 1.174.12 1.723.313a3.12 3.12 0 0 1 .662.296l.475-2.73A9.342 9.342 0 0 0 9.727 10"/>
        </g>
    </g>
</svg>
