<?xml version="1.0" encoding="utf-8"?>
<!-- Generator: Adobe Illustrator 22.0.0, SVG Export Plug-In . SVG Version: 6.00 Build 0)  -->
<svg version="1.1" id="New_VF_Logo_AW" xmlns="http://www.w3.org/2000/svg" xmlns:xlink="http://www.w3.org/1999/xlink" x="0px"
	 y="0px" viewBox="0 0 647.9 470.2" style="enable-background:new 0 0 647.9 470.2;" xml:space="preserve">
<style type="text/css">
	.st0{fill:#E60000;}
	.st1{fill:#FFFFFF;}
</style>
<g id="XMLID_354_">
	<circle id="XMLID_356_" class="st0" cx="328.8" cy="155.9" r="141.7"/>
	<path id="XMLID_355_" class="st1" d="M330,234.9c-38.9,0.1-79.5-33.1-79.6-86.5c-0.1-35.3,18.9-69.3,43.3-89.4
		c23.7-19.7,56.3-32.3,85.8-32.4c3.8,0,7.8,0.3,10.2,1.1c-25.8,5.3-46.3,29.4-46.2,56.6c0,0.9,0.1,1.9,0.2,2.3
		c43.2,10.5,62.7,36.6,62.9,72.6C406.5,195.3,378,234.8,330,234.9z"/>
</g>
<g id="XMLID_332_">
	<path id="XMLID_352_" class="st0" d="M47,454.2l-32.8-78.3h21.5l20.5,52l19.8-52h20.5l-31.9,78.3H47z"/>
	<path id="XMLID_349_" class="st0" d="M173.4,414.7c0,5.1-0.8,10.1-2.4,15c-1.6,4.9-3.9,9.3-7,13.2c-3.1,3.9-7,7-11.7,9.4
		c-4.7,2.4-10.2,3.6-16.5,3.6c-6.3,0-11.8-1.2-16.5-3.6c-4.7-2.4-8.6-5.5-11.7-9.4c-3.1-3.9-5.4-8.3-7-13.2c-1.6-4.9-2.4-9.9-2.4-15
		c0-5.1,0.8-10.1,2.4-15c1.6-4.9,3.9-9.2,7-13.1c3.1-3.8,7-6.9,11.7-9.3c4.7-2.3,10.2-3.5,16.5-3.5c6.3,0,11.8,1.2,16.4,3.5
		c4.7,2.3,8.6,5.4,11.7,9.3c3.1,3.8,5.5,8.2,7.1,13.1C172.6,404.7,173.4,409.7,173.4,414.7z M153.6,414.7c0-3.3-0.4-6.4-1.1-9.3
		c-0.8-2.9-1.9-5.5-3.4-7.6c-1.5-2.1-3.4-3.8-5.5-5.1c-2.2-1.2-4.7-1.9-7.6-1.9c-2.9,0-5.5,0.6-7.6,1.9c-2.2,1.2-4,2.9-5.5,5.1
		c-1.5,2.1-2.7,4.6-3.4,7.6c-0.8,2.9-1.1,6-1.1,9.3c0,3.4,0.4,6.5,1.1,9.4c0.8,2.9,1.9,5.4,3.3,7.6c1.5,2.2,3.3,3.9,5.5,5.1
		c2.2,1.2,4.8,1.9,7.7,1.9c2.9,0,5.5-0.6,7.6-1.9c2.2-1.2,4-3,5.5-5.1c1.5-2.2,2.7-4.7,3.4-7.6C153.2,421.2,153.6,418,153.6,414.7z"
		/>
	<path id="XMLID_346_" class="st0" d="M235.6,454.2l-0.8-6c-1.8,2.1-4.3,3.9-7.3,5.4c-3,1.6-6.6,2.4-10.7,2.4
		c-5.4,0-10.2-1.1-14.3-3.4c-4.1-2.3-7.6-5.3-10.4-9.1c-2.8-3.8-4.9-8.2-6.4-13.2c-1.5-5-2.2-10.2-2.2-15.6c0-5.1,0.8-10.1,2.3-15
		c1.5-4.9,3.8-9.2,6.9-13.1c3.1-3.8,6.9-6.9,11.6-9.3c4.6-2.3,10.1-3.5,16.4-3.5c4.1,0,8.5,0.8,13.3,2.3v-30.4h20.2v108.4H235.6z
		 M233.9,393.1c-3.9-1.5-7.5-2.3-10.8-2.3c-3.4,0-6.4,0.7-8.9,2c-2.5,1.3-4.5,3.1-6.1,5.3c-1.6,2.2-2.8,4.7-3.6,7.5
		c-0.8,2.8-1.2,5.6-1.2,8.6c0,3.3,0.4,6.4,1.1,9.4s1.8,5.6,3.2,7.8c1.5,2.2,3.3,4,5.5,5.4c2.2,1.4,4.8,2,7.8,2c2.5,0,5-0.7,7.6-2
		c2.6-1.4,4.4-3,5.5-4.8V393.1z"/>
	<path id="XMLID_343_" class="st0" d="M312.4,454.2l-0.8-5.8c-2.2,2.4-4.9,4.3-8.3,5.7c-3.4,1.4-7.1,2-11.1,2
		c-3.4,0-6.6-0.6-9.7-1.7c-3.1-1.1-5.8-2.8-8.2-4.9c-2.4-2.1-4.3-4.7-5.8-7.8c-1.5-3.1-2.2-6.6-2.2-10.5s0.8-7.3,2.3-10.3
		c1.5-3,3.6-5.5,6.2-7.6c2.6-2.1,5.6-3.7,9-5c3.4-1.3,6.9-2.3,10.6-2.9c2.6-0.5,5.5-0.9,8.6-1.2c3.1-0.3,5.7-0.5,7.7-0.7v-1.1
		c0-4.3-1.1-7.4-3.4-9.3c-2.2-1.8-5.3-2.8-9.2-2.8c-2.3,0-4.5,0.3-6.5,0.8c-2.1,0.5-3.9,1.2-5.6,2c-1.6,0.8-3.1,1.6-4.3,2.4
		c-1.3,0.8-2.3,1.5-3,2.2l-6.7-14.1c0.9-0.8,2.2-1.7,4-2.8c1.8-1.1,4-2.1,6.5-3.2c2.5-1,5.4-1.9,8.6-2.6c3.2-0.7,6.6-1.1,10.3-1.1
		c4.3,0,8.3,0.6,11.9,1.7c3.6,1.1,6.7,2.9,9.3,5.4c2.6,2.4,4.6,5.5,6.1,9.3c1.5,3.7,2.2,8.3,2.2,13.6v50.3H312.4z M310.8,417.5
		c-2.2,0.1-4.4,0.3-6.7,0.6c-2.3,0.3-4.5,0.6-6.5,1.1c-4.4,0.9-7.4,2.4-9.1,4.5c-1.7,2.1-2.5,4.4-2.5,6.9c0,2.6,1,4.7,2.9,6.3
		c1.9,1.6,4.6,2.4,8.1,2.4c2.6,0,5.2-0.5,7.6-1.6c2.5-1.1,4.6-2.4,6.3-4.1V417.5z"/>
	<path id="XMLID_341_" class="st0" d="M393.1,363.7c-0.7-0.3-1.9-0.8-3.8-1.4c-1.9-0.6-4.4-0.9-7.6-0.9c-2.8,0-5.2,0.8-7.1,2.5
		c-1.9,1.7-2.8,4.4-2.8,8.2v3.7h16.9v16.3H372v62.1h-20.2v-62.1h-10.4v-16.3h10.4v-4.2c0-5.1,0.7-9.4,1.9-12.9
		c1.3-3.5,3.1-6.4,5.4-8.6c2.3-2.2,5.1-3.8,8.2-4.9c3.1-1,6.6-1.5,10.2-1.5c4.9,0,8.9,0.5,12.1,1.4c3.2,0.9,5.1,1.5,5.6,1.9
		L393.1,363.7z"/>
	<path id="XMLID_338_" class="st0" d="M467.9,414.7c0,5.1-0.8,10.1-2.4,15c-1.6,4.9-3.9,9.3-7,13.2c-3.1,3.9-7,7-11.7,9.4
		c-4.7,2.4-10.2,3.6-16.5,3.6s-11.8-1.2-16.5-3.6c-4.7-2.4-8.6-5.5-11.7-9.4c-3.1-3.9-5.4-8.3-7-13.2c-1.6-4.9-2.4-9.9-2.4-15
		c0-5.1,0.8-10.1,2.4-15c1.6-4.9,3.9-9.2,7-13.1c3.1-3.8,7-6.9,11.7-9.3c4.7-2.3,10.2-3.5,16.5-3.5s11.8,1.2,16.4,3.5
		c4.7,2.3,8.6,5.4,11.7,9.3c3.1,3.8,5.5,8.2,7.1,13.1C467.1,404.7,467.9,409.7,467.9,414.7z M448,414.7c0-3.3-0.4-6.4-1.1-9.3
		c-0.8-2.9-1.9-5.5-3.4-7.6c-1.5-2.1-3.4-3.8-5.5-5.1c-2.2-1.2-4.7-1.9-7.6-1.9c-2.9,0-5.5,0.6-7.6,1.9c-2.2,1.2-4,2.9-5.5,5.1
		c-1.5,2.1-2.7,4.6-3.4,7.6c-0.8,2.9-1.1,6-1.1,9.3c0,3.4,0.4,6.5,1.1,9.4c0.8,2.9,1.9,5.4,3.3,7.6s3.3,3.9,5.5,5.1
		c2.2,1.2,4.8,1.9,7.7,1.9c2.9,0,5.5-0.6,7.6-1.9c2.2-1.2,4-3,5.5-5.1c1.5-2.2,2.7-4.7,3.4-7.6C447.7,421.2,448,418,448,414.7z"/>
	<path id="XMLID_336_" class="st0" d="M530.4,454.2v-44.7c0-6-1.2-10.6-3.7-13.8c-2.5-3.2-6-4.9-10.4-4.9c-3.1,0-6,0.8-8.7,2.4
		c-2.7,1.6-5,3.4-6.9,5.4v55.6h-20.2v-78.3h18.4l1,6.2c3.1-2.6,6.7-4.6,10.6-6c4-1.4,7.9-2.1,11.9-2.1c4.1,0,7.9,0.6,11.4,1.9
		c3.5,1.2,6.4,3.2,8.9,5.9c2.5,2.7,4.4,6.2,5.8,10.6c1.4,4.3,2,9.5,2,15.6v46.3H530.4z"/>
	<path id="XMLID_333_" class="st0" d="M582.9,420.1c0.4,6.6,2.5,11.4,6.2,14.3c3.7,2.9,8.5,4.4,14.4,4.4c2.7,0,5.3-0.2,7.7-0.7
		c2.4-0.5,4.5-1.1,6.4-1.9c1.8-0.8,3.4-1.5,4.7-2.3c1.3-0.8,2.3-1.5,2.9-2.1l5.4,16.4c-0.8,0.5-2,1.3-3.7,2.2
		c-1.7,0.9-3.8,1.8-6.3,2.6c-2.5,0.8-5.4,1.5-8.8,2.1c-3.4,0.6-7,0.9-11.1,0.9c-5.1,0-9.9-0.8-14.5-2.4c-4.6-1.6-8.6-4.1-12.1-7.6
		c-3.5-3.4-6.2-7.7-8.3-12.8c-2.1-5.1-3.1-11.2-3.1-18.2c0-6.6,0.9-12.5,2.8-17.6c1.9-5.1,4.5-9.4,7.8-12.8c3.3-3.5,7.2-6.1,11.5-8
		c4.4-1.8,9.1-2.8,14.1-2.8c5,0,9.6,0.8,13.8,2.4c4.2,1.6,7.9,4.1,11,7.6c3.1,3.4,5.5,7.8,7.3,13.2c1.8,5.4,2.7,11.9,2.7,19.3v3.6
		H582.9z M613.3,405.6c-0.2-2.7-0.8-5.1-1.7-7.1c-0.9-2-2.1-3.6-3.4-4.9c-1.4-1.2-2.8-2.2-4.4-2.8c-1.6-0.6-3.2-0.9-4.8-0.9
		c-3.5,0-6.8,1.3-10,3.9c-3.2,2.6-5,6.5-5.6,11.7H613.3z"/>
</g>
</svg>
