<?xml version="1.0" encoding="utf-8"?>
<!-- Generator: Adobe Illustrator 21.1.0, SVG Export Plug-In . SVG Version: 6.00 Build 0)  -->
<svg version="1.1" id="Layer_1" xmlns="http://www.w3.org/2000/svg" xmlns:xlink="http://www.w3.org/1999/xlink" x="0px" y="0px"
	 viewBox="0 0 130 30" style="enable-background:new 0 0 130 30;" xml:space="preserve">
<style type="text/css">
	.st0{fill:#2D4552;}
	.st1{fill:#FD7B1F;}
</style>
<g>
	<g>
		<g>
			<g>
				<g>
					<polygon class="st0" points="47.5,4.9 43,19 38.2,4.9 32.8,4.9 30.8,25.5 35.2,25.5 36.2,11.7 40.7,25.5 44.9,25.5 49.2,11.8 
						50.4,25.5 55.1,25.5 53,4.9 					"/>
					<rect x="79.6" y="4.9" class="st0" width="5.1" height="20.6"/>
					<path class="st0" d="M100.6,16.3c0,2.4-0.1,3.4-0.9,4.2c-0.5,0.5-1.2,1-2.6,1c-1.1,0-2-0.3-2.5-0.9c-0.8-0.8-0.9-2.1-0.9-3.1
						V4.9h-5.1v11.6c0,3,0.2,5.3,2,7.1c1.8,1.8,4.1,2.4,6.4,2.4c4,0,5.7-1.7,6.5-2.4c1.5-1.5,2-3,2-6.6V4.9h-4.9V16.3z"/>
					<path class="st0" d="M121.7,15.5c-2.3-2.3-6.2-3.1-7.2-4.1c-0.3-0.2-0.6-0.5-0.6-1.2c0-1.2,1.1-1.9,2.7-1.9
						c2.2,0,3.9,1.2,4.3,1.4l2.2-3.2c-0.4-0.4-2.8-2.2-6.7-2.2c-4.3,0-7.5,2.5-7.5,6.2c0,1.9,0.7,2.9,1.5,3.7c2.1,2,6.3,3.1,7.2,4
						c0.4,0.4,0.6,0.8,0.6,1.3c0,1.6-1.3,2.3-3,2.3c-2.6,0-4.4-1.3-4.8-1.5l-2.1,3.3c0.6,0.6,3,2.4,7.3,2.4c4.6,0,7.8-2.7,7.8-6.7
						C123.3,17.7,122.7,16.4,121.7,15.5z"/>
					<path class="st1" d="M17.5,4c-6,0-10.8,4.8-10.8,10.9c0,6,4.8,11,10.8,11c6,0,10.9-5,10.9-11C28.5,8.8,23.5,4,17.5,4z
						 M17.6,21.1c-3.4,0-6.1-2.8-6.1-6.2c0-3.4,2.7-6.1,6.1-6.1c3.4,0,6.2,2.7,6.2,6.1C23.7,18.3,20.9,21.1,17.6,21.1z"/>
					<polygon class="st0" points="71.2,17.1 63.1,4.6 57.2,4.6 58.7,8.5 58.7,25.3 63.3,25.3 63.2,12.6 71.5,25.3 75.7,25.3 
						75.7,4.6 71.1,4.6 					"/>
					<path class="st1" d="M17.6,12.1c-1.6,0-2.8,1.3-2.8,2.8c0,1.6,1.3,2.9,2.8,2.9c1.6,0,2.8-1.3,2.8-2.9
						C20.4,13.4,19.1,12.1,17.6,12.1z"/>
				</g>
			</g>
		</g>
	</g>
</g>
</svg>
