{
	"ReferenceID": "5a436d58ab59f",
	"Status": {
		"StatusReasonCode": "ERR-0000",
		"StatusReason": "SUCCESS"
	},
	"Success": "true",
	"Customer": {
		"PartyIdentification": {
			"ID": "FN_002883721196"
		},
		"Contact": {
			"ElectronicMail": "bss24_man._bitl3_ngn_2@gmail.com"
		},
		"PostalAddresses": [{
			"ID": [],
			"AddressTypeCode": "L",
			"Postbox": [],
			"StreetName": "Ferdinand-Braun-Platz",
			"BuildingNumber": "1",
			"CityName": "D\u00fcsseldorf",
			"PostalZone": "40549",
			"CountrySubentity": [],
			"District": [],
			"Country": {
				"Name": []
			}
		}, {
			"ID": [],
			"AddressTypeCode": "B",
			"Postbox": [],
			"StreetName": "Ferdinand-Braun-Platz",
			"BuildingNumber": "1",
			"CityName": "D\u00fcsseldorf",
			"PostalZone": "40549",
			"CountrySubentity": [],
			"District": [],
			"Country": {
				"Name": []
			}
		}, {
			"ID": [],
			"AddressTypeCode": "S",
			"Postbox": [],
			"StreetName": "Ferdinand-Braun-Platz",
			"BuildingNumber": "1",
			"CityName": "D\u00fcsseldorf",
			"PostalZone": "40549",
			"CountrySubentity": [],
			"District": [],
			"Country": {
				"Name": "DE"
			}
		}, {
			"ID": [],
			"AddressTypeCode": "D",
			"Postbox": [],
			"StreetName": "Ferdinand-Braun-Platz",
			"BuildingNumber": "1",
			"CityName": "D\u00fcsseldorf",
			"PostalZone": "40549",
			"CountrySubentity": [],
			"District": [],
			"Country": {
				"Name": []
			}
		}],
		"CustomerPassword": "KEIN KENNWORT",
		"CustomerLifeCycleStatus": [],
		"AccountCategory": "FN",
		"PartyType": "PRIVATE",
		"ParentAccountNumber": {
			"ID": "002883721196"
		},
		"ContactPhoneNumber": [{
			"CountryCode": "49",
			"LocalAreaCode": "0211",
			"PhoneNumber": "59828790",
			"Type": "FIXED_PHONE"
		}, {
			"CountryCode": "49",
			"LocalAreaCode": "0211",
			"PhoneNumber": "59828790",
			"Type": "FIXED_PHONE"
		}, {
			"CountryCode": "49",
			"LocalAreaCode": "0211",
			"PhoneNumber": "59828790",
			"Type": "FIXED_PHONE"
		}, {
			"CountryCode": "49",
			"LocalAreaCode": "0211",
			"PhoneNumber": "59828790",
			"Type": "FIXED_PHONE"
		}, {
			"CountryCode": "49",
			"LocalAreaCode": "0211",
			"PhoneNumber": "59828790",
			"Type": "FIXED_PHONE"
		}, {
			"CountryCode": "49",
			"LocalAreaCode": "0211",
			"PhoneNumber": "59828790",
			"Type": "FIXED_PHONE"
		}, {
			"CountryCode": "49",
			"LocalAreaCode": "0211",
			"PhoneNumber": "59828790",
			"Type": "FIXED_PHONE"
		}, {
			"CountryCode": "49",
			"LocalAreaCode": "0211",
			"PhoneNumber": "59828790",
			"Type": "FIXED_PHONE"
		}, {
			"CountryCode": "49",
			"LocalAreaCode": "0211",
			"PhoneNumber": "59828790",
			"Type": "FIXED_PHONE"
		}, {
			"CountryCode": "49",
			"LocalAreaCode": "0211",
			"PhoneNumber": "59828790",
			"Type": "FIXED_PHONE"
		}],
		"Role": {
			"Person": {
				"FirstName": "BSS24_Man._BITL3_NGN_2",
				"FamilyName": "BSS24_Man._BITL3_NGN_2",
				"BirthDate": "1980-10-11",
				"Salutation": "N"
			}
		},
		"BillingAccount": {
			"PartyIdentyfication": {
				"ID": "1544970366"
			},
			"BackEndCustomerID": "002883721196",
			"PaymentMethod": [],
			"BillingType": "PAPER"
		}
	}
}