{
  "ReferenceID": "58a4578934ec3",
  "Status": {
    "StatusReasonCode": "ERR-0000",
    "StatusReason": "SUCCESS"
  },
  "Success": "true",
  "PayerAndPaymentInfo": {
    "PartyLegalEntity": {
      "RegistrationAddress": {
        "ID": "522885",
        "StreetName": "Dinkelsbühler Weg",
        "BuildingName": "a",
        "BuildingNumber": "6",
        "CitySubdivisionName": null,
        "CityName": "Augsburg",
        "PostalZone": "86154",
        "District": null,
        "Country": "DEU"
      }
    },
    "Contact": {
      "Name": "Timo Storost"
    },
    "Role": {
      "Person": {
        "FirstName": "Timo",
        "FamilyName": "Storost",
        "Title": null,
        "Salutation": "Herr"
      }
    },
    "BillingAccount": {
      "ID": "DE71720400460101384600",
      "FinancialInstitutionBranch": {
        "Name": "Commerzbank"
      },
      "PaymentMethod": "TRANSFER"
    }
  }
}