<svg id="Layer_1" xmlns="http://www.w3.org/2000/svg" viewBox="0 0 30 30">
  <style>
    .st0{fill-rule:evenodd;clip-rule:evenodd;fill:#fff;stroke:#9fabb2}.st2{fill:#5b717c}
  </style>
  <g id="Icons">
    <g>
      <g id="Group">
        <path id="Rectangle" class="st0" d="M2.5 5v22c0 1.4 1.1 2.5 2.5 2.5h22c1.4 0 2.5-1.1 2.5-2.5V5c0-1.4-1.1-2.5-2.5-2.5H5C3.6 2.5 2.5 3.6 2.5 5z"/>
        <path class="st0" d="M3.5.5h20c1.7 0 3 1.3 3 3v20c0 1.7-1.3 3-3 3h-20c-1.7 0-3-1.3-3-3v-20c0-1.7 1.3-3 3-3z"/>
      </g>
    </g>
    <path class="st2" d="M7.6 15H5.8l-.3 1H4.4l1.9-5h1l1.9 5H8l-.4-1zm-1.5-.9h1.2l-.6-1.9-.6 1.9zM11.1 15.2h2.2v.8H10v-5h1v4.2zM15.4 15.2h2.2v.8h-3.2v-5h1v4.2zM21.6 13.8h-2v1.3h2.3v.9h-3.3v-5h3.3v.8h-2.3V13h2v.8z"/>
  </g>
</svg>
