<svg xmlns="http://www.w3.org/2000/svg" width="24" height="24" viewBox="0 0 24 24">
<style type="text/css">
	.st0{fill:#FFFFFF;}
	.st1{fill:none;}
</style>
<path class="st0" d="M6,14l1.4,1.4l4.6-4.6l4.6,4.6L18,14l-6-6L6,14z"/>
<path class="st1" d="M0,24L0,0l24,0v24H0z"/>
</svg>
