<svg xmlns="http://www.w3.org/2000/svg" xmlns:xlink="http://www.w3.org/1999/xlink" width="8" height="12" viewBox="0 0 8 12">
    <defs>
        <path id="a" d="M14.6 6.5L10 11.1 5.4 6.5 4 7.9l6 6 6-6z"/>
    </defs>
    <g fill="none" fill-rule="evenodd" transform="matrix(0 -1 -1 0 14 16)">
        <path d="M0 0h20v20H0z"/>
        <mask id="b" fill="#fff">
            <use xlink:href="#a"/>
        </mask>
        <use fill="#2D4552" xlink:href="#a"/>
        <g fill="#2D4552" mask="url(#b)">
            <path d="M0 0h20v20H0z"/>
        </g>
    </g>
</svg>
