<svg xmlns="http://www.w3.org/2000/svg" xmlns:xlink="http://www.w3.org/1999/xlink" width="24" height="24" viewBox="0 0 24 24">
    <defs>
        <path id="a" d="M10 12H9V6c0-1.676 1.324-3 3-3s3 1.324 3 3v1h-1V6c0-1.124-.876-2-2-2s-2 .876-2 2v6zm2-2V9h6c1.676 0 3 1.324 3 3s-1.324 3-3 3h-1v-1h1c1.124 0 2-.876 2-2s-.876-2-2-2h-6zm2 2h1v6c0 1.676-1.324 3-3 3s-3-1.324-3-3v-1h1v1c0 1.124.876 2 2 2s2-.876 2-2v-6zm-2 2v1H6c-1.676 0-3-1.324-3-3s1.324-3 3-3h1v1H6c-1.124 0-2 .876-2 2s.876 2 2 2h6z"/>
    </defs>
    <g fill="none" fill-rule="evenodd">
        <path d="M0 0h24v24H0z"/>
        <mask id="b" fill="#fff">
            <use xlink:href="#a"/>
        </mask>
        <use fill="#fff" fill-rule="nonzero" xlink:href="#a"/>
        <g fill="#fff" mask="url(#b)">
            <path d="M0 0h24v24H0z"/>
        </g>
    </g>
</svg>
