<svg xmlns="http://www.w3.org/2000/svg" xmlns:xlink="http://www.w3.org/1999/xlink" width="30" height="30" viewBox="0 0 30 30">
    <defs>
        <rect id="a" width="30" height="30" rx="3"/>
        <path id="c" d="M12 21a1 1 0 1 1 0-2 1 1 0 0 1 0 2zM10 4h4v1h-4V4zm6.5-1c.3 0 .5.2.5.5v18c0 .3-.2.5-.5.5h-9c-.3 0-.5-.2-.5-.5v-18c0-.3.2-.5.5-.5h9zm0-1h-9C6.7 2 6 2.7 6 3.5v18c0 .8.7 1.5 1.5 1.5h9c.8 0 1.5-.7 1.5-1.5v-18c0-.8-.7-1.5-1.5-1.5z"/>
    </defs>
    <g fill="none" fill-rule="evenodd">
        <g>
            <mask id="b" fill="#fff">
                <use xlink:href="#a"/>
            </mask>
            <use fill="#F25151" xlink:href="#a"/>
            <g fill="#E22E2E" mask="url(#b)">
                <path d="M0 0h30v30H0z"/>
            </g>
            <rect width="29" height="29" x=".5" y=".5" stroke="#000" stroke-opacity=".05" rx="3"/>
        </g>
        <g transform="translate(3 3)">
            <path d="M0 0h24v24H0z"/>
            <mask id="d" fill="#fff">
                <use xlink:href="#c"/>
            </mask>
            <use fill="#2D4552" fill-rule="nonzero" xlink:href="#c"/>
            <g fill="#FFF" mask="url(#d)">
                <path d="M0 0h24v24H0z"/>
            </g>
        </g>
    </g>
</svg>
